<?xml version="1.0" encoding="UTF-8"?>
<svg width="24px" height="43px" viewBox="0 0 24 43" version="1.1" xmlns="http://www.w3.org/2000/svg" xmlns:xlink="http://www.w3.org/1999/xlink">
    <!-- Generator: Sketch 44.1 (41455) - http://www.bohemiancoding.com/sketch -->
    <title>Combined Shape</title>
    <desc>Created with Sketch.</desc>
    <defs></defs>
    <g id="Desktop-HD" stroke="none" stroke-width="1" fill="none" fill-rule="evenodd">
        <g id="List-Berlin-–-Open" transform="translate(-1260.000000, -279.000000)" fill="#414CB7">
            <g id="header">
                <g id="car-arrows" transform="translate(120.000000, 252.000000)">
                    <g id="arrow-right" transform="translate(1152.000000, 48.000000) scale(-1, 1) translate(-1152.000000, -48.000000) translate(1104.000000, 0.000000)">
                        <polygon id="Combined-Shape" points="40.2426407 48.2132034 59.3345238 67.3050865 57.2132034 69.4264069 36 48.2132034 57.2132034 27 59.3345238 29.1213203"></polygon>
                    </g>
                </g>
            </g>
        </g>
    </g>
</svg>